C:\Users\User\Desktop\teee\Subjects\src\main\java\ee\savi\dao\SubjectAttributeDAO.java
C:\Users\User\Desktop\teee\Subjects\src\main\java\ee\savi\dao\PersonDAO.java
C:\Users\User\Desktop\teee\Subjects\src\main\java\ee\savi\service\SubjectAttributeService.java
C:\Users\User\Desktop\teee\Subjects\src\main\java\ee\savi\controller\SearchController.java
C:\Users\User\Desktop\teee\Subjects\src\main\java\ee\savi\model\BaseEntity.java
C:\Users\User\Desktop\teee\Subjects\src\main\java\ee\savi\controller\EnterpriseController.java
C:\Users\User\Desktop\teee\Subjects\src\main\java\ee\savi\enums\SubjectType.java
C:\Users\User\Desktop\teee\Subjects\src\main\java\ee\savi\dao\rowmapper\PersonRowMapper.java
C:\Users\User\Desktop\teee\Subjects\src\main\java\ee\savi\model\SubjectBaseEntity.java
C:\Users\User\Desktop\teee\Subjects\src\main\java\ee\savi\service\impl\AddressServiceImpl.java
C:\Users\User\Desktop\teee\Subjects\src\main\java\ee\savi\init\WebAppConfig.java
C:\Users\User\Desktop\teee\Subjects\src\main\java\ee\savi\enums\ContactType.java
C:\Users\User\Desktop\teee\Subjects\src\main\java\ee\savi\model\Customer.java
C:\Users\User\Desktop\teee\Subjects\src\main\java\ee\savi\model\EnterprisePersonRelation.java
C:\Users\User\Desktop\teee\Subjects\src\main\java\ee\savi\dao\AddressDAO.java
C:\Users\User\Desktop\teee\Subjects\src\main\java\ee\savi\model\Person.java
C:\Users\User\Desktop\teee\Subjects\src\main\java\ee\savi\service\UserService.java
C:\Users\User\Desktop\teee\Subjects\src\main\java\ee\savi\dao\ContactDAO.java
C:\Users\User\Desktop\teee\Subjects\src\main\java\ee\savi\model\CriteriaItem.java
C:\Users\User\Desktop\teee\Subjects\src\main\java\ee\savi\dao\UserDAO.java
C:\Users\User\Desktop\teee\Subjects\src\main\java\ee\savi\auth\UserDetailsServiceImpl.java
C:\Users\User\Desktop\teee\Subjects\src\main\java\ee\savi\dao\CustomerDAO.java
C:\Users\User\Desktop\teee\Subjects\src\main\java\ee\savi\controller\CustomerController.java
C:\Users\User\Desktop\teee\Subjects\src\main\java\ee\savi\auth\UserPrincipal.java
C:\Users\User\Desktop\teee\Subjects\src\main\java\ee\savi\model\User.java
C:\Users\User\Desktop\teee\Subjects\src\main\java\ee\savi\service\impl\CustomerServiceImpl.java
C:\Users\User\Desktop\teee\Subjects\src\main\java\ee\savi\service\SubjectAttributeTypeService.java
C:\Users\User\Desktop\teee\Subjects\src\main\java\ee\savi\service\impl\UserServiceImpl.java
C:\Users\User\Desktop\teee\Subjects\src\main\java\ee\savi\model\EmployeeRole.java
C:\Users\User\Desktop\teee\Subjects\src\main\java\ee\savi\service\CustomerService.java
C:\Users\User\Desktop\teee\Subjects\src\main\java\ee\savi\controller\SubjectAttributeTypeController.java
C:\Users\User\Desktop\teee\Subjects\src\main\java\ee\savi\model\Address.java
C:\Users\User\Desktop\teee\Subjects\src\main\java\ee\savi\controller\LinkController.java
C:\Users\User\Desktop\teee\Subjects\src\main\java\ee\savi\dao\rowmapper\CustomerRowMapper.java
C:\Users\User\Desktop\teee\Subjects\src\main\java\ee\savi\controller\AddressController.java
C:\Users\User\Desktop\teee\Subjects\src\main\java\ee\savi\service\impl\SubjectAttributeServiceImpl.java
C:\Users\User\Desktop\teee\Subjects\src\main\java\ee\savi\service\impl\EnterpriseServiceImpl.java
C:\Users\User\Desktop\teee\Subjects\src\main\java\ee\savi\model\SubjectAttribute.java
C:\Users\User\Desktop\teee\Subjects\src\main\java\ee\savi\service\AddressService.java
C:\Users\User\Desktop\teee\Subjects\src\main\java\ee\savi\dao\rowmapper\EnterpriseRowMapper.java
C:\Users\User\Desktop\teee\Subjects\src\main\java\ee\savi\service\EnterpriseService.java
C:\Users\User\Desktop\teee\Subjects\src\main\java\ee\savi\init\Initializer.java
C:\Users\User\Desktop\teee\Subjects\src\main\java\ee\savi\controller\BaseResource.java
C:\Users\User\Desktop\teee\Subjects\src\main\java\ee\savi\model\AddressType.java
C:\Users\User\Desktop\teee\Subjects\src\main\java\ee\savi\model\IdEntity.java
C:\Users\User\Desktop\teee\Subjects\src\main\java\ee\savi\model\Employee.java
C:\Users\User\Desktop\teee\Subjects\src\main\java\ee\savi\controller\PersonController.java
C:\Users\User\Desktop\teee\Subjects\src\main\java\ee\savi\dao\rowmapper\EmployeeRowMapper.java
C:\Users\User\Desktop\teee\Subjects\src\main\java\ee\savi\model\Criteria.java
C:\Users\User\Desktop\teee\Subjects\src\main\java\ee\savi\model\SubjectAttributeType.java
C:\Users\User\Desktop\teee\Subjects\src\main\java\ee\savi\enums\DataType.java
C:\Users\User\Desktop\teee\Subjects\src\main\java\ee\savi\dao\rowmapper\SubjectAttributeListItemRowMapper.java
C:\Users\User\Desktop\teee\Subjects\src\main\java\ee\savi\model\SubjectAttributeListItem.java
C:\Users\User\Desktop\teee\Subjects\src\main\java\ee\savi\util\SpringUtil.java
C:\Users\User\Desktop\teee\Subjects\src\main\java\ee\savi\dao\rowmapper\ContactRowMapper.java
C:\Users\User\Desktop\teee\Subjects\src\main\java\ee\savi\util\JsonUtil.java
C:\Users\User\Desktop\teee\Subjects\src\main\java\ee\savi\dao\rowmapper\SubjectAttributeTypeRowMapper.java
C:\Users\User\Desktop\teee\Subjects\src\main\java\ee\savi\service\PersonService.java
C:\Users\User\Desktop\teee\Subjects\src\main\java\ee\savi\util\SqlUtil.java
C:\Users\User\Desktop\teee\Subjects\src\main\java\ee\savi\controller\CrudRestController.java
C:\Users\User\Desktop\teee\Subjects\src\main\java\ee\savi\dao\rowmapper\SubjectAttributeRowMapper.java
C:\Users\User\Desktop\teee\Subjects\src\main\java\ee\savi\model\Enterprise.java
C:\Users\User\Desktop\teee\Subjects\src\main\java\ee\savi\model\Contact.java
C:\Users\User\Desktop\teee\Subjects\src\main\java\ee\savi\controller\SubjectAttributeController.java
C:\Users\User\Desktop\teee\Subjects\src\main\java\ee\savi\controller\UserController.java
C:\Users\User\Desktop\teee\Subjects\src\main\java\ee\savi\service\impl\ContactServiceImpl.java
C:\Users\User\Desktop\teee\Subjects\src\main\java\ee\savi\service\impl\SubjectAttributeTypeServiceImpl.java
C:\Users\User\Desktop\teee\Subjects\src\main\java\ee\savi\dao\BaseDAO.java
C:\Users\User\Desktop\teee\Subjects\src\main\java\ee\savi\dao\EnterpriseDAO.java
C:\Users\User\Desktop\teee\Subjects\src\main\java\ee\savi\dao\rowmapper\AddressRowMapper.java
C:\Users\User\Desktop\teee\Subjects\src\main\java\ee\savi\dao\SubjectAttributeTypeDAO.java
C:\Users\User\Desktop\teee\Subjects\src\main\java\ee\savi\controller\ContactController.java
C:\Users\User\Desktop\teee\Subjects\src\main\java\ee\savi\service\ContactService.java
C:\Users\User\Desktop\teee\Subjects\src\main\java\ee\savi\util\UserUtil.java
C:\Users\User\Desktop\teee\Subjects\src\main\java\ee\savi\service\impl\PersonServiceImpl.java
C:\Users\User\Desktop\teee\Subjects\src\main\java\ee\savi\repository\UserRepository.java
